…
return(x)
  
}

iris_with_missing = map_df(iris_with_missing, replace_values)

iris_with_missing
```

    ## # A tibble: 150 x 5
    ##    sepal_length sepal_width petal_length petal_width species
    ##           <dbl>       <dbl>        <dbl>       <dbl> <chr>  
    ##  1          5.1         3.5          1.4         0.2 setosa 
    ##  2          4.9         3            1.4         0.2 setosa 
    ##  3          4.7         3.2          1.3         0.2 setosa 
    ##  4          4.6         3.1          1.5         1   setosa 
    ##  5          5           3.6          1.4         0.2 setosa 
    ##  6          5.4         3.9          1.7         0.4 setosa 
    ##  7          6           3.4          1.4         0.3 setosa 
    ##  8          5           3.4          1.5         0.2 setosa 
    ##  9          4.4         2.9          1.4         0.2 setosa 
    ## 10          4.9         3.1          4           0.1 setosa 
    ## # … with 140 more rows
…
Setting beta1 = 0 and generating 10000 datasets from the model:

``` r
sim_results = rerun(10000, sim_regression(b1 = 0)) %>% 
  bind_rows()

sim_results
```

    ## # A tibble: 10,000 x 2
    ##      b1_hat p_value
    ##       <dbl>   <dbl>
    ##  1  0.296     0.798
    ##  2  0.00648   0.996
    ##  3 -2.16      0.155
    ##  4 -0.454     0.718
    ##  5 -0.514     0.730
    ##  6  1.71      0.243
    ##  7 -1.18      0.322
    ##  8  1.09      0.366
    ##  9  0.806     0.377
    ## 10  2.35      0.131
    ## # … with 9,990 more rows
Repeating the step above for beta1 = 0 and 1, 2, 3, 4, 5, 6:

``` r
sim_results_2 = 
  tibble(b1_2 = c(0,1,2,3,4,5,6)) %>% 
  mutate(
    output_lists = map(.x = b1_2, ~rerun(10000, sim_regression(b1 = .x))),
    estimate_dfs = map(output_lists, bind_rows)) %>% 
  select(-output_lists) %>% 
  unnest(estimate_dfs)

sim_results_2
```

    ## # A tibble: 70,000 x 3
    ##     b1_2  b1_hat p_value
    ##    <dbl>   <dbl>   <dbl>
    ##  1     0  2.03     0.123
    ##  2     0  0.390    0.767
    ##  3     0  0.930    0.423
    ##  4     0 -0.985    0.411
    ##  5     0 -0.889    0.575
    ##  6     0 -2.24     0.108
    ##  7     0  0.0163   0.987
    ##  8     0  0.819    0.579
    ##  9     0  1.35     0.299
    ## 10     0  1.46     0.317
    ## # … with 69,990 more rows
…
